Arbor Custom Analytics LLC - Making R graphs more accessible using BrailleR
…
As an example, I’ll show a series of graphs using the redpine data set available in the stats4nr package. Data contain information collected from 450 red pine trees in Minnesota, including their diameter at breast height (DBH) and total height (HT). Data were collected from various forest cover types (CoverType*) and forest inventory plots (PlotNum) across the forest:

# install.packages("devtools")

# devtools::install_github("mbrussell/stats4nr")

library(stats4nr)

data(redpine)

redpine

# A tibble: 450 × 5
   PlotNum CoverType TreeNum   DBH    HT
     <dbl> <chr>       <dbl> <dbl> <dbl>
 1       5 Red pine       46  13      51
 2       5 Red pine       50   8.3    54
 3       5 Red pine       54   8.2    48
 4       5 Red pine       56  11.8    55
 5       5 Red pine       63   9      54
 6       5 Red pine       71  12.5    46
 7      11 Cut            47  25.3    90
 8      13 Red pine        1  16.2    85
 9      13 Red pine        2  18.8    86
10      13 Red pine        7  22.2    90
# ℹ 440 more rows
…
